<?xml version="1.0" encoding="UTF-8"?>
<glyph name="ggeung-ko" format="2">
	<advance width="1000"/>
	<unicode hex="B059"/>
	<outline>
		<contour>
			<point x="-10" y="-210" type="line"/>
			<point x="1010" y="-210" type="line"/>
			<point x="1010" y="810" type="line"/>
			<point x="-10" y="810" type="line"/>
		</contour>
		<contour>
			<point x="247" y="373" type="curve"/>
			<point x="247" y="446"/>
			<point x="176" y="515"/>
			<point x="140" y="515" type="curve"/>
			<point x="176" y="515"/>
			<point x="247" y="584"/>
			<point x="247" y="658" type="curve"/>
			<point x="247" y="584"/>
			<point x="318" y="515"/>
			<point x="354" y="515" type="curve"/>
			<point x="318" y="515"/>
			<point x="247" y="446"/>
		</contour>
		<contour>
			<point x="750" y="-130" type="curve"/>
			<point x="750" y="19"/>
			<point x="644" y="156"/>
			<point x="571" y="156" type="curve"/>
			<point x="644" y="156"/>
			<point x="750" y="296"/>
			<point x="750" y="442" type="curve"/>
			<point x="750" y="296"/>
			<point x="857" y="156"/>
			<point x="930" y="156" type="curve"/>
			<point x="857" y="156"/>
			<point x="750" y="19"/>
		</contour>
	</outline>
	<lib>
		<dict>
			<key>com.schriftgestaltung.Glyphs.lastChange</key>
			<string>2020-03-03 13:16:35 +0000</string>
			<key>public.markColor</key>
			<string>0.5,0.09,0.79,1</string>
		</dict>
	</lib>
</glyph>
