<?xml version="1.0" encoding="UTF-8"?>
<glyph name="ggeu-ko" format="2">
	<advance width="1000"/>
	<unicode hex="B044"/>
	<outline>
		<contour>
			<point x="-10" y="-210" type="line"/>
			<point x="1010" y="-210" type="line"/>
			<point x="1010" y="810" type="line"/>
			<point x="-10" y="810" type="line"/>
		</contour>
		<contour>
			<point x="290" y="-130" type="curve"/>
			<point x="290" y="16"/>
			<point x="183" y="156"/>
			<point x="110" y="156" type="curve"/>
			<point x="183" y="156"/>
			<point x="290" y="293"/>
			<point x="290" y="442" type="curve"/>
			<point x="290" y="293"/>
			<point x="396" y="156"/>
			<point x="469" y="156" type="curve"/>
			<point x="396" y="156"/>
			<point x="290" y="16"/>
		</contour>
		<contour>
			<point x="249" y="375" type="curve"/>
			<point x="249" y="449"/>
			<point x="178" y="518"/>
			<point x="142" y="518" type="curve"/>
			<point x="178" y="518"/>
			<point x="249" y="587"/>
			<point x="249" y="660" type="curve"/>
			<point x="249" y="587"/>
			<point x="320" y="518"/>
			<point x="356" y="518" type="curve"/>
			<point x="320" y="518"/>
			<point x="249" y="449"/>
		</contour>
	</outline>
	<lib>
		<dict>
			<key>com.schriftgestaltung.Glyphs.lastChange</key>
			<string>2020-03-03 13:16:35 +0000</string>
			<key>public.markColor</key>
			<string>0.5,0.09,0.79,1</string>
		</dict>
	</lib>
</glyph>
