<?xml version="1.0" encoding="UTF-8"?>
<glyph name="H" format="2">
	<advance width="1000"/>
	<unicode hex="0048"/>
	<outline>
		<contour>
			<point x="401" y="-130" type="curve" smooth="yes"/>
			<point x="418" y="-130"/>
			<point x="399" y="-118"/>
			<point x="399" y="-74" type="curve" smooth="yes"/>
			<point x="399" y="-39"/>
			<point x="479" y="-40"/>
			<point x="505" y="-40" type="curve" smooth="yes"/>
			<point x="531" y="-40"/>
			<point x="557" y="-29"/>
			<point x="580" y="-29" type="curve" smooth="yes"/>
			<point x="603" y="-29"/>
			<point x="632" y="-45"/>
			<point x="632" y="-61" type="curve" smooth="yes"/>
			<point x="632" y="-78"/>
			<point x="640" y="-83"/>
			<point x="647" y="-83" type="curve" smooth="yes"/>
			<point x="681" y="-83"/>
			<point x="674" y="-32"/>
			<point x="676" y="-32" type="curve" smooth="yes"/>
			<point x="678" y="-32"/>
			<point x="687" y="-42"/>
			<point x="702" y="-42" type="curve" smooth="yes"/>
			<point x="717" y="-42"/>
			<point x="740" y="-32"/>
			<point x="746" y="-32" type="curve" smooth="yes"/>
			<point x="764" y="-32"/>
			<point x="782" y="-37"/>
			<point x="793" y="-45" type="curve"/>
			<point x="805" y="-53"/>
			<point x="818" y="-52"/>
			<point x="811" y="-40" type="curve"/>
			<point x="801" y="-26" type="line"/>
			<point x="850" y="-24"/>
			<point x="872" y="-43"/>
			<point x="872" y="-24" type="curve" smooth="yes"/>
			<point x="872" y="-14"/>
			<point x="806" y="-11"/>
			<point x="767" y="-11" type="curve" smooth="yes"/>
			<point x="749" y="-11"/>
			<point x="744" y="-9"/>
			<point x="744" y="-3" type="curve" smooth="yes"/>
			<point x="744" y="5"/>
			<point x="730" y="9"/>
			<point x="730" y="19" type="curve" smooth="yes"/>
			<point x="730" y="87"/>
			<point x="630" y="94"/>
			<point x="632" y="100" type="curve"/>
			<point x="653" y="188"/>
			<point x="590" y="265"/>
			<point x="469" y="291" type="curve" smooth="yes"/>
			<point x="402" y="305"/>
			<point x="428" y="330"/>
			<point x="469" y="358" type="curve" smooth="yes"/>
			<point x="599" y="446"/>
			<point x="524" y="527"/>
			<point x="524" y="527" type="curve"/>
			<point x="524" y="529" type="line"/>
			<point x="523" y="537"/>
			<point x="520" y="558"/>
			<point x="565" y="558" type="curve" smooth="yes"/>
			<point x="616" y="558"/>
			<point x="635" y="480"/>
			<point x="635" y="470" type="curve" smooth="yes"/>
			<point x="635" y="460"/>
			<point x="652" y="452"/>
			<point x="652" y="473" type="curve" smooth="yes"/>
			<point x="652" y="589"/>
			<point x="515" y="584"/>
			<point x="547" y="584" type="curve" smooth="yes"/>
			<point x="580" y="584"/>
			<point x="601" y="625"/>
			<point x="606" y="625" type="curve" smooth="yes"/>
			<point x="643" y="625"/>
			<point x="692" y="569"/>
			<point x="704" y="563" type="curve"/>
			<point x="715" y="556"/>
			<point x="733" y="547"/>
			<point x="727" y="517" type="curve"/>
			<point x="720" y="488"/>
			<point x="740" y="465"/>
			<point x="749" y="452" type="curve"/>
			<point x="759" y="439"/>
			<point x="767" y="423"/>
			<point x="767" y="395" type="curve" smooth="yes"/>
			<point x="767" y="367"/>
			<point x="788" y="384"/>
			<point x="800" y="348" type="curve" smooth="yes"/>
			<point x="811" y="312"/>
			<point x="810" y="284"/>
			<point x="793" y="284" type="curve" smooth="yes"/>
			<point x="789" y="284"/>
			<point x="785" y="278"/>
			<point x="798" y="278" type="curve" smooth="yes"/>
			<point x="819" y="278"/>
			<point x="821" y="310"/>
			<point x="821" y="322" type="curve"/>
			<point x="822" y="315"/>
			<point x="827" y="309"/>
			<point x="847" y="309" type="curve" smooth="yes"/>
			<point x="870" y="309"/>
			<point x="883" y="265"/>
			<point x="883" y="252" type="curve" smooth="yes"/>
			<point x="883" y="239"/>
			<point x="894" y="243"/>
			<point x="894" y="253" type="curve" smooth="yes"/>
			<point x="894" y="263"/>
			<point x="898" y="299"/>
			<point x="852" y="325" type="curve" smooth="yes"/>
			<point x="806" y="351"/>
			<point x="818" y="358"/>
			<point x="802" y="375" type="curve" smooth="yes"/>
			<point x="785" y="393"/>
			<point x="782" y="380"/>
			<point x="782" y="424" type="curve" smooth="yes"/>
			<point x="782" y="468"/>
			<point x="758" y="478"/>
			<point x="758" y="494" type="curve" smooth="yes"/>
			<point x="758" y="511"/>
			<point x="766" y="520"/>
			<point x="766" y="547" type="curve" smooth="yes"/>
			<point x="766" y="578"/>
			<point x="749" y="591"/>
			<point x="753" y="591" type="curve" smooth="yes"/>
			<point x="756" y="591"/>
			<point x="761" y="594"/>
			<point x="767" y="594" type="curve" smooth="yes"/>
			<point x="774" y="594"/>
			<point x="844" y="594"/>
			<point x="844" y="491" type="curve" smooth="yes"/>
			<point x="844" y="468"/>
			<point x="867" y="455"/>
			<point x="862" y="470" type="curve" smooth="yes"/>
			<point x="857" y="485"/>
			<point x="854" y="498"/>
			<point x="854" y="509" type="curve" smooth="yes"/>
			<point x="854" y="520"/>
			<point x="850" y="556"/>
			<point x="850" y="556" type="curve"/>
			<point x="850" y="566"/>
			<point x="901" y="511"/>
			<point x="922" y="511" type="curve" smooth="yes"/>
			<point x="960" y="511"/>
			<point x="787" y="617"/>
			<point x="769" y="617" type="curve" smooth="yes"/>
			<point x="678" y="617"/>
			<point x="657" y="651"/>
			<point x="653" y="652" type="curve"/>
			<point x="652" y="654"/>
			<point x="644" y="657"/>
			<point x="697" y="657" type="curve" smooth="yes"/>
			<point x="772" y="657"/>
			<point x="798" y="698"/>
			<point x="811" y="698" type="curve" smooth="yes"/>
			<point x="828" y="698"/>
			<point x="850" y="680"/>
			<point x="850" y="674" type="curve" smooth="yes"/>
			<point x="850" y="667"/>
			<point x="867" y="666"/>
			<point x="867" y="674" type="curve" smooth="yes"/>
			<point x="867" y="701"/>
			<point x="821" y="710"/>
			<point x="824" y="710" type="curve" smooth="yes"/>
			<point x="888" y="710"/>
			<point x="901" y="685"/>
			<point x="912" y="666" type="curve"/>
			<point x="919" y="656"/>
			<point x="927" y="661"/>
			<point x="925" y="664" type="curve"/>
			<point x="924" y="669"/>
			<point x="894" y="724"/>
			<point x="836" y="724" type="curve" smooth="yes"/>
			<point x="766" y="724"/>
			<point x="730" y="685"/>
			<point x="710" y="685" type="curve" smooth="yes"/>
			<point x="694" y="685"/>
			<point x="668" y="695"/>
			<point x="650" y="695" type="curve" smooth="yes"/>
			<point x="611" y="695"/>
			<point x="582" y="672"/>
			<point x="580" y="672" type="curve" smooth="yes"/>
			<point x="521" y="672"/>
			<point x="516" y="656"/>
			<point x="516" y="656" type="curve" smooth="yes"/>
			<point x="487" y="656"/>
			<point x="458" y="721"/>
			<point x="418" y="721" type="curve" smooth="yes"/>
			<point x="348" y="721"/>
			<point x="374" y="687"/>
			<point x="273" y="687" type="curve" smooth="yes"/>
			<point x="210" y="687"/>
			<point x="184" y="724"/>
			<point x="138" y="724" type="curve" smooth="yes"/>
			<point x="79" y="724" type="line" smooth="yes"/>
			<point x="73" y="724"/>
			<point x="71" y="714"/>
			<point x="78" y="714" type="curve" smooth="yes"/>
			<point x="168" y="714"/>
			<point x="212" y="680"/>
			<point x="205" y="680" type="curve" smooth="yes"/>
			<point x="122" y="680"/>
			<point x="73" y="553"/>
			<point x="73" y="520" type="curve" smooth="yes"/>
			<point x="73" y="507"/>
			<point x="83" y="509"/>
			<point x="83" y="517" type="curve" smooth="yes"/>
			<point x="83" y="548"/>
			<point x="119" y="610"/>
			<point x="115" y="600" type="curve"/>
			<point x="106" y="573"/>
			<point x="112" y="543"/>
			<point x="112" y="543" type="curve"/>
			<point x="112" y="533"/>
			<point x="122" y="535"/>
			<point x="122" y="558" type="curve" smooth="yes"/>
			<point x="122" y="610"/>
			<point x="177" y="669"/>
			<point x="231" y="669" type="curve" smooth="yes"/>
			<point x="251" y="669"/>
			<point x="322" y="654"/>
			<point x="316" y="654" type="curve" smooth="yes"/>
			<point x="288" y="654"/>
			<point x="238" y="591"/>
			<point x="238" y="574" type="curve" smooth="yes"/>
			<point x="238" y="551"/>
			<point x="168" y="502"/>
			<point x="156" y="485" type="curve"/>
			<point x="150" y="473"/>
			<point x="132" y="445"/>
			<point x="132" y="432" type="curve" smooth="yes"/>
			<point x="132" y="421"/>
			<point x="135" y="418"/>
			<point x="141" y="418" type="curve" smooth="yes"/>
			<point x="148" y="418"/>
			<point x="146" y="437"/>
			<point x="146" y="441" type="curve" smooth="yes"/>
			<point x="146" y="444"/>
			<point x="158" y="470"/>
			<point x="158" y="457" type="curve" smooth="yes"/>
			<point x="158" y="444"/>
			<point x="158" y="410"/>
			<point x="167" y="410" type="curve" smooth="yes"/>
			<point x="177" y="410"/>
			<point x="172" y="457"/>
			<point x="172" y="463" type="curve" smooth="yes"/>
			<point x="172" y="470"/>
			<point x="179" y="465"/>
			<point x="179" y="481" type="curve" smooth="yes"/>
			<point x="179" y="498"/>
			<point x="198" y="506"/>
			<point x="208" y="519" type="curve"/>
			<point x="210" y="485" type="line"/>
			<point x="210" y="462"/>
			<point x="236" y="452"/>
			<point x="236" y="465" type="curve" smooth="yes"/>
			<point x="236" y="478"/>
			<point x="226" y="475"/>
			<point x="226" y="490" type="curve" smooth="yes"/>
			<point x="226" y="530"/>
			<point x="234" y="517"/>
			<point x="234" y="535" type="curve" smooth="yes"/>
			<point x="234" y="553"/>
			<point x="249" y="550"/>
			<point x="249" y="561" type="curve" smooth="yes"/>
			<point x="249" y="599"/>
			<point x="316" y="648"/>
			<point x="334" y="648" type="curve" smooth="yes"/>
			<point x="352" y="648"/>
			<point x="379" y="680"/>
			<point x="404" y="680" type="curve" smooth="yes"/>
			<point x="428" y="680"/>
			<point x="443" y="670"/>
			<point x="443" y="659" type="curve" smooth="yes"/>
			<point x="443" y="630"/>
			<point x="469" y="631"/>
			<point x="469" y="626" type="curve" smooth="yes"/>
			<point x="469" y="615"/>
			<point x="440" y="604"/>
			<point x="440" y="584" type="curve" smooth="yes"/>
			<point x="440" y="543"/>
			<point x="485" y="550"/>
			<point x="485" y="522" type="curve" smooth="yes"/>
			<point x="485" y="499"/>
			<point x="361" y="446"/>
			<point x="335" y="406" type="curve" smooth="yes"/>
			<point x="309" y="367"/>
			<point x="335" y="307"/>
			<point x="360" y="287" type="curve" smooth="yes"/>
			<point x="376" y="274"/>
			<point x="415" y="242"/>
			<point x="412" y="206" type="curve"/>
			<point x="410" y="194"/>
			<point x="394" y="185"/>
			<point x="388" y="164" type="curve"/>
			<point x="384" y="154"/>
			<point x="383" y="136"/>
			<point x="388" y="124" type="curve"/>
			<point x="339" y="124"/>
			<point x="308" y="69"/>
			<point x="308" y="69" type="curve" smooth="yes"/>
			<point x="308" y="69"/>
			<point x="298" y="38"/>
			<point x="259" y="38" type="curve" smooth="yes"/>
			<point x="220" y="38"/>
			<point x="239" y="-11"/>
			<point x="163" y="-11" type="curve" smooth="yes"/>
			<point x="141" y="-11"/>
			<point x="148" y="-26"/>
			<point x="156" y="-26" type="curve" smooth="yes"/>
			<point x="164" y="-26"/>
			<point x="164" y="-22"/>
			<point x="190" y="-22" type="curve" smooth="yes"/>
			<point x="202" y="-22"/>
			<point x="215" y="-19"/>
			<point x="219" y="-17" type="curve"/>
			<point x="216" y="-21"/>
			<point x="210" y="-35"/>
			<point x="210" y="-42" type="curve" smooth="yes"/>
			<point x="210" y="-66"/>
			<point x="231" y="-39"/>
			<point x="238" y="-32" type="curve" smooth="yes"/>
			<point x="244" y="-26"/>
			<point x="259" y="-22"/>
			<point x="255" y="-27" type="curve"/>
			<point x="252" y="-32"/>
			<point x="223" y="-76"/>
			<point x="223" y="-86" type="curve" smooth="yes"/>
			<point x="223" y="-101"/>
			<point x="234" y="-96"/>
			<point x="234" y="-94" type="curve"/>
			<point x="234" y="-94"/>
			<point x="296" y="-22"/>
			<point x="296" y="-40" type="curve" smooth="yes"/>
			<point x="296" y="-70"/>
			<point x="303" y="-50"/>
			<point x="303" y="-76" type="curve" smooth="yes"/>
			<point x="303" y="-86"/>
			<point x="316" y="-89"/>
			<point x="316" y="-61" type="curve" smooth="yes"/>
			<point x="316" y="-22"/>
			<point x="407" y="-29"/>
			<point x="399" y="-29" type="curve" smooth="yes"/>
			<point x="378" y="-29"/>
			<point x="371" y="-79"/>
			<point x="371" y="-79" type="curve"/>
			<point x="371" y="-96"/>
			<point x="383" y="-130"/>
		</contour>
	</outline>
	<lib>
		<dict>
			<key>com.schriftgestaltung.Glyphs.lastChange</key>
			<string>2020-03-03 13:16:35 +0000</string>
			<key>public.markColor</key>
			<string>0.99,0.62,0.11,1</string>
		</dict>
	</lib>
</glyph>
