<?xml version="1.0" encoding="UTF-8"?>
<glyph name="naed-ko" format="2">
	<advance width="1000"/>
	<unicode hex="B0BB"/>
	<outline>
		<contour>
			<point x="-10" y="-210" type="line"/>
			<point x="1010" y="-210" type="line"/>
			<point x="1010" y="810" type="line"/>
			<point x="-10" y="810" type="line"/>
		</contour>
		<contour>
			<point x="536" y="-92" type="curve"/>
			<point x="536" y="-20"/>
			<point x="600" y="-87"/>
			<point x="600" y="-30" type="curve"/>
			<point x="619" y="-30"/>
			<point x="658" y="-46"/>
			<point x="658" y="-6" type="curve" smooth="yes"/>
			<point x="658" y="43"/>
			<point x="702" y="54"/>
			<point x="750" y="14" type="curve"/>
			<point x="678" y="-57"/>
			<point x="607" y="-92"/>
		</contour>
		<contour>
			<point x="821" y="85" type="curve"/>
			<point x="781" y="149"/>
			<point x="638" y="76"/>
			<point x="638" y="143" type="curve" smooth="yes"/>
			<point x="638" y="207"/>
			<point x="559" y="228"/>
			<point x="499" y="228" type="curve"/>
			<point x="499" y="692" type="line"/>
			<point x="715" y="692"/>
			<point x="892" y="515"/>
			<point x="892" y="299" type="curve" smooth="yes"/>
			<point x="892" y="228"/>
			<point x="858" y="156"/>
		</contour>
	</outline>
	<lib>
		<dict>
			<key>com.schriftgestaltung.Glyphs.lastChange</key>
			<string>2020-03-03 13:16:35 +0000</string>
			<key>public.markColor</key>
			<string>0.5,0.09,0.79,1</string>
		</dict>
	</lib>
</glyph>
