<?xml version="1.0" encoding="UTF-8"?>
<glyph name="nu-ko" format="2">
	<advance width="1000"/>
	<unicode hex="B204"/>
	<outline>
		<contour>
			<point x="358" y="-210" type="line"/>
			<point x="1010" y="-210" type="line"/>
			<point x="1010" y="443" type="line"/>
			<point x="881" y="443" type="line" smooth="yes"/>
			<point x="842" y="443"/>
			<point x="811" y="474"/>
			<point x="811" y="513" type="curve" smooth="yes"/>
			<point x="811" y="551"/>
			<point x="779" y="583"/>
			<point x="741" y="583" type="curve" smooth="yes"/>
			<point x="679" y="583" type="line" smooth="yes"/>
			<point x="641" y="583"/>
			<point x="610" y="551"/>
			<point x="610" y="513" type="curve" smooth="yes"/>
			<point x="610" y="510" type="line" smooth="yes"/>
			<point x="610" y="473"/>
			<point x="580" y="443"/>
			<point x="543" y="443" type="curve" smooth="yes"/>
			<point x="-10" y="443" type="line"/>
			<point x="-10" y="157" type="line"/>
			<point x="331" y="157" type="line" smooth="yes"/>
			<point x="357" y="157"/>
			<point x="490" y="146"/>
			<point x="497" y="143" type="curve"/>
			<point x="497" y="150" type="line" smooth="yes"/>
			<point x="497" y="153"/>
			<point x="500" y="155"/>
			<point x="503" y="155" type="curve" smooth="yes"/>
			<point x="506" y="155"/>
			<point x="509" y="153"/>
			<point x="509" y="150" type="curve" smooth="yes"/>
			<point x="509" y="140" type="line"/>
			<point x="514" y="138"/>
			<point x="518" y="138"/>
			<point x="523" y="138" type="curve" smooth="yes"/>
			<point x="533" y="138" type="line"/>
			<point x="533" y="147" type="line" smooth="yes"/>
			<point x="533" y="150"/>
			<point x="536" y="153"/>
			<point x="539" y="153" type="curve" smooth="yes"/>
			<point x="542" y="153"/>
			<point x="545" y="150"/>
			<point x="545" y="147" type="curve" smooth="yes"/>
			<point x="545" y="137" type="line"/>
			<point x="553" y="137"/>
			<point x="561" y="135"/>
			<point x="569" y="132" type="curve"/>
			<point x="569" y="147" type="line" smooth="yes"/>
			<point x="569" y="150"/>
			<point x="571" y="153"/>
			<point x="575" y="153" type="curve" smooth="yes"/>
			<point x="578" y="153"/>
			<point x="580" y="150"/>
			<point x="580" y="147" type="curve" smooth="yes"/>
			<point x="580" y="125" type="line"/>
			<point x="598" y="112"/>
			<point x="610" y="92"/>
			<point x="610" y="68" type="curve" smooth="yes"/>
			<point x="610" y="65" type="line" smooth="yes"/>
			<point x="610" y="26"/>
			<point x="579" y="-5"/>
			<point x="540" y="-5" type="curve" smooth="yes"/>
			<point x="428" y="-5" type="line" smooth="yes"/>
			<point x="389" y="-5"/>
			<point x="358" y="-36"/>
			<point x="358" y="-75" type="curve" smooth="yes"/>
		</contour>
		<contour>
			<point x="112" y="-67" type="curve" smooth="yes"/>
			<point x="115" y="-67"/>
			<point x="118" y="-65"/>
			<point x="118" y="-62" type="curve" smooth="yes"/>
			<point x="118" y="-9" type="line"/>
			<point x="153" y="17" type="line"/>
			<point x="155" y="19"/>
			<point x="156" y="23"/>
			<point x="154" y="25" type="curve"/>
			<point x="152" y="28"/>
			<point x="148" y="29"/>
			<point x="146" y="27" type="curve"/>
			<point x="118" y="6" type="line"/>
			<point x="118" y="32" type="line" smooth="yes"/>
			<point x="118" y="35"/>
			<point x="115" y="38"/>
			<point x="112" y="38" type="curve" smooth="yes"/>
			<point x="109" y="38"/>
			<point x="106" y="35"/>
			<point x="106" y="32" type="curve" smooth="yes"/>
			<point x="106" y="0" type="line"/>
			<point x="91" y="3"/>
			<point x="80" y="16"/>
			<point x="80" y="32" type="curve" smooth="yes"/>
			<point x="80" y="50"/>
			<point x="94" y="64"/>
			<point x="112" y="64" type="curve" smooth="yes"/>
			<point x="115" y="64"/>
			<point x="118" y="67"/>
			<point x="118" y="70" type="curve" smooth="yes"/>
			<point x="118" y="73"/>
			<point x="115" y="76"/>
			<point x="112" y="76" type="curve" smooth="yes"/>
			<point x="88" y="76"/>
			<point x="68" y="56"/>
			<point x="68" y="32" type="curve" smooth="yes"/>
			<point x="68" y="10"/>
			<point x="85" y="-9"/>
			<point x="106" y="-12" type="curve"/>
			<point x="106" y="-62" type="line" smooth="yes"/>
			<point x="106" y="-65"/>
			<point x="109" y="-67"/>
		</contour>
		<contour>
			<point x="212" y="-12" type="curve" smooth="yes"/>
			<point x="215" y="-12"/>
			<point x="218" y="-9"/>
			<point x="218" y="-6" type="curve" smooth="yes"/>
			<point x="218" y="-2" type="line" smooth="yes"/>
			<point x="218" y="2"/>
			<point x="215" y="4"/>
			<point x="212" y="4" type="curve" smooth="yes"/>
			<point x="209" y="4"/>
			<point x="206" y="2"/>
			<point x="206" y="-2" type="curve" smooth="yes"/>
			<point x="206" y="-6" type="line" smooth="yes"/>
			<point x="206" y="-9"/>
			<point x="209" y="-12"/>
		</contour>
		<contour>
			<point x="248" y="-12" type="curve" smooth="yes"/>
			<point x="251" y="-12"/>
			<point x="254" y="-9"/>
			<point x="254" y="-6" type="curve" smooth="yes"/>
			<point x="254" y="-2" type="line" smooth="yes"/>
			<point x="254" y="2"/>
			<point x="251" y="4"/>
			<point x="248" y="4" type="curve" smooth="yes"/>
			<point x="245" y="4"/>
			<point x="242" y="2"/>
			<point x="242" y="-2" type="curve" smooth="yes"/>
			<point x="242" y="-6" type="line" smooth="yes"/>
			<point x="242" y="-9"/>
			<point x="245" y="-12"/>
		</contour>
		<contour>
			<point x="284" y="-12" type="curve" smooth="yes"/>
			<point x="287" y="-12"/>
			<point x="289" y="-9"/>
			<point x="289" y="-6" type="curve" smooth="yes"/>
			<point x="289" y="-2" type="line" smooth="yes"/>
			<point x="289" y="2"/>
			<point x="287" y="4"/>
			<point x="284" y="4" type="curve" smooth="yes"/>
			<point x="280" y="4"/>
			<point x="278" y="2"/>
			<point x="278" y="-2" type="curve" smooth="yes"/>
			<point x="278" y="-6" type="line" smooth="yes"/>
			<point x="278" y="-9"/>
			<point x="280" y="-12"/>
		</contour>
		<contour>
			<point x="374" y="-182" type="line"/>
			<point x="374" y="-75" type="line" smooth="yes"/>
			<point x="374" y="-45"/>
			<point x="398" y="-21"/>
			<point x="428" y="-21" type="curve" smooth="yes"/>
			<point x="453" y="-21" type="line"/>
			<point x="453" y="-25" type="line"/>
			<point x="428" y="-25" type="line" smooth="yes"/>
			<point x="400" y="-25"/>
			<point x="378" y="-47"/>
			<point x="378" y="-75" type="curve" smooth="yes"/>
			<point x="378" y="-182" type="line"/>
		</contour>
		<contour>
			<point x="500" y="-114" type="line" smooth="yes"/>
			<point x="497" y="-114"/>
			<point x="494" y="-111"/>
			<point x="494" y="-108" type="curve" smooth="yes"/>
			<point x="494" y="-105"/>
			<point x="497" y="-102"/>
			<point x="500" y="-102" type="curve" smooth="yes"/>
			<point x="518" y="-102" type="line" smooth="yes"/>
			<point x="521" y="-102"/>
			<point x="524" y="-105"/>
			<point x="524" y="-108" type="curve" smooth="yes"/>
			<point x="524" y="-111"/>
			<point x="521" y="-114"/>
			<point x="518" y="-114" type="curve" smooth="yes"/>
		</contour>
		<contour>
			<point x="118" y="595" type="curve" smooth="yes"/>
			<point x="119" y="595"/>
			<point x="120" y="595"/>
			<point x="121" y="596" type="curve"/>
			<point x="139" y="607" type="line"/>
			<point x="141" y="609"/>
			<point x="142" y="613"/>
			<point x="140" y="616" type="curve"/>
			<point x="139" y="618"/>
			<point x="135" y="619"/>
			<point x="132" y="617" type="curve" smooth="yes"/>
			<point x="114" y="605" type="line"/>
			<point x="112" y="604"/>
			<point x="111" y="600"/>
			<point x="113" y="597" type="curve"/>
			<point x="114" y="595"/>
			<point x="116" y="595"/>
		</contour>
		<contour>
			<point x="248" y="488" type="curve" smooth="yes"/>
			<point x="251" y="488"/>
			<point x="254" y="491"/>
			<point x="254" y="494" type="curve" smooth="yes"/>
			<point x="254" y="499" type="line" smooth="yes"/>
			<point x="254" y="502"/>
			<point x="251" y="505"/>
			<point x="248" y="505" type="curve" smooth="yes"/>
			<point x="245" y="505"/>
			<point x="242" y="502"/>
			<point x="242" y="499" type="curve" smooth="yes"/>
			<point x="242" y="494" type="line" smooth="yes"/>
			<point x="242" y="491"/>
			<point x="245" y="488"/>
		</contour>
		<contour>
			<point x="153" y="595" type="curve" smooth="yes"/>
			<point x="154" y="595"/>
			<point x="156" y="595"/>
			<point x="157" y="596" type="curve"/>
			<point x="175" y="607" type="line"/>
			<point x="177" y="609"/>
			<point x="178" y="613"/>
			<point x="176" y="616" type="curve"/>
			<point x="174" y="618"/>
			<point x="171" y="619"/>
			<point x="168" y="617" type="curve" smooth="yes"/>
			<point x="150" y="605" type="line"/>
			<point x="147" y="604"/>
			<point x="147" y="600"/>
			<point x="148" y="597" type="curve"/>
			<point x="150" y="595"/>
			<point x="151" y="595"/>
		</contour>
		<contour>
			<point x="539" y="214" type="line" smooth="yes"/>
			<point x="536" y="214"/>
			<point x="534" y="216"/>
			<point x="534" y="220" type="curve" smooth="yes"/>
			<point x="534" y="223"/>
			<point x="536" y="225"/>
			<point x="539" y="225" type="curve" smooth="yes"/>
			<point x="575" y="225" type="line" smooth="yes"/>
			<point x="578" y="225"/>
			<point x="581" y="223"/>
			<point x="581" y="220" type="curve" smooth="yes"/>
			<point x="581" y="216"/>
			<point x="578" y="214"/>
			<point x="575" y="214" type="curve" smooth="yes"/>
		</contour>
		<contour>
			<point x="284" y="488" type="curve" smooth="yes"/>
			<point x="287" y="488"/>
			<point x="289" y="491"/>
			<point x="289" y="494" type="curve" smooth="yes"/>
			<point x="289" y="499" type="line" smooth="yes"/>
			<point x="289" y="502"/>
			<point x="287" y="505"/>
			<point x="284" y="505" type="curve" smooth="yes"/>
			<point x="280" y="505"/>
			<point x="278" y="502"/>
			<point x="278" y="499" type="curve" smooth="yes"/>
			<point x="278" y="494" type="line" smooth="yes"/>
			<point x="278" y="491"/>
			<point x="280" y="488"/>
		</contour>
		<contour>
			<point x="710" y="28" type="line" smooth="yes"/>
			<point x="707" y="28"/>
			<point x="704" y="31"/>
			<point x="704" y="34" type="curve" smooth="yes"/>
			<point x="704" y="37"/>
			<point x="707" y="40"/>
			<point x="710" y="40" type="curve" smooth="yes"/>
			<point x="787" y="40" type="line" smooth="yes"/>
			<point x="790" y="40"/>
			<point x="793" y="37"/>
			<point x="793" y="34" type="curve" smooth="yes"/>
			<point x="793" y="31"/>
			<point x="790" y="28"/>
			<point x="787" y="28" type="curve" smooth="yes"/>
		</contour>
		<contour>
			<point x="189" y="595" type="curve" smooth="yes"/>
			<point x="190" y="595"/>
			<point x="191" y="595"/>
			<point x="192" y="596" type="curve"/>
			<point x="210" y="607" type="line"/>
			<point x="213" y="609"/>
			<point x="214" y="613"/>
			<point x="212" y="616" type="curve"/>
			<point x="210" y="618"/>
			<point x="206" y="619"/>
			<point x="204" y="617" type="curve"/>
			<point x="186" y="605" type="line"/>
			<point x="183" y="604"/>
			<point x="182" y="600"/>
			<point x="184" y="597" type="curve"/>
			<point x="185" y="595"/>
			<point x="187" y="595"/>
		</contour>
		<contour>
			<point x="319" y="488" type="curve" smooth="yes"/>
			<point x="323" y="488"/>
			<point x="325" y="491"/>
			<point x="325" y="494" type="curve" smooth="yes"/>
			<point x="325" y="499" type="line" smooth="yes"/>
			<point x="325" y="502"/>
			<point x="323" y="505"/>
			<point x="319" y="505" type="curve" smooth="yes"/>
			<point x="316" y="505"/>
			<point x="313" y="502"/>
			<point x="313" y="499" type="curve" smooth="yes"/>
			<point x="313" y="494" type="line" smooth="yes"/>
			<point x="313" y="491"/>
			<point x="316" y="488"/>
		</contour>
		<contour>
			<point x="897" y="71" type="line" smooth="yes"/>
			<point x="893" y="71"/>
			<point x="891" y="73"/>
			<point x="891" y="77" type="curve" smooth="yes"/>
			<point x="891" y="80"/>
			<point x="893" y="82"/>
			<point x="897" y="82" type="curve" smooth="yes"/>
			<point x="932" y="82" type="line" smooth="yes"/>
			<point x="936" y="82"/>
			<point x="939" y="80"/>
			<point x="939" y="77" type="curve" smooth="yes"/>
			<point x="939" y="73"/>
			<point x="936" y="71"/>
			<point x="932" y="71" type="curve" smooth="yes"/>
		</contour>
		<contour>
			<point x="643" y="453" type="line" smooth="yes"/>
			<point x="640" y="453"/>
			<point x="637" y="455"/>
			<point x="637" y="459" type="curve" smooth="yes"/>
			<point x="637" y="462"/>
			<point x="640" y="464"/>
			<point x="643" y="464" type="curve" smooth="yes"/>
			<point x="709" y="464" type="line" smooth="yes"/>
			<point x="712" y="464"/>
			<point x="715" y="462"/>
			<point x="715" y="459" type="curve" smooth="yes"/>
			<point x="715" y="455"/>
			<point x="712" y="453"/>
			<point x="709" y="453" type="curve" smooth="yes"/>
		</contour>
		<contour>
			<point x="881" y="423" type="line" smooth="yes"/>
			<point x="841" y="423"/>
			<point x="806" y="450"/>
			<point x="795" y="487" type="curve"/>
			<point x="798" y="488" type="line"/>
			<point x="809" y="452"/>
			<point x="843" y="427"/>
			<point x="881" y="427" type="curve" smooth="yes"/>
			<point x="983" y="427" type="line"/>
			<point x="983" y="423" type="line"/>
		</contour>
		<contour>
			<point x="871" y="621" type="curve" smooth="yes"/>
			<point x="874" y="621"/>
			<point x="877" y="624"/>
			<point x="877" y="627" type="curve" smooth="yes"/>
			<point x="877" y="677" type="line"/>
			<point x="898" y="680"/>
			<point x="915" y="699"/>
			<point x="915" y="721" type="curve" smooth="yes"/>
			<point x="915" y="745"/>
			<point x="895" y="765"/>
			<point x="871" y="765" type="curve" smooth="yes"/>
			<point x="847" y="765"/>
			<point x="827" y="745"/>
			<point x="827" y="721" type="curve" smooth="yes"/>
			<point x="827" y="699"/>
			<point x="844" y="680"/>
			<point x="865" y="677" type="curve"/>
			<point x="865" y="627" type="line" smooth="yes"/>
			<point x="865" y="624"/>
			<point x="868" y="621"/>
		</contour>
		<contour>
			<point x="865" y="690" type="line"/>
			<point x="850" y="692"/>
			<point x="839" y="705"/>
			<point x="839" y="721" type="curve" smooth="yes"/>
			<point x="839" y="739"/>
			<point x="853" y="753"/>
			<point x="871" y="753" type="curve" smooth="yes"/>
			<point x="889" y="753"/>
			<point x="903" y="739"/>
			<point x="903" y="721" type="curve" smooth="yes"/>
			<point x="903" y="705"/>
			<point x="892" y="692"/>
			<point x="877" y="690" type="curve"/>
			<point x="877" y="721" type="line" smooth="yes"/>
			<point x="877" y="724"/>
			<point x="874" y="727"/>
			<point x="871" y="727" type="curve" smooth="yes"/>
			<point x="868" y="727"/>
			<point x="865" y="724"/>
			<point x="865" y="721" type="curve" smooth="yes"/>
		</contour>
	</outline>
	<lib>
		<dict>
			<key>com.schriftgestaltung.Glyphs.lastChange</key>
			<string>2020-03-03 13:16:35 +0000</string>
			<key>public.markColor</key>
			<string>0.06,0.6,0.98,1</string>
		</dict>
	</lib>
</glyph>
